// Jest Snapshot v1, https://goo.gl/fbAQLP

exports[`subgraphUtils destroy few 1`] = `
Subgraph {
  "$data": LazyCopyMap {
    "children": Array [],
    "data": Map {
      1 => Object {
        "value": "b",
      },
    },
    "parent": undefined,
  },
  "$edgeAliases": Map {},
  "$edgeCount": 0,
  "$edges": LazyCopyMap {
    "children": Array [],
    "data": Map {},
    "parent": undefined,
  },
  "$idea": Map {
    0 => ProxyIdea {
      "id": "_testA",
    },
    1 => ProxyIdea {
      "id": "_testB",
    },
    2 => ProxyIdea {
      "id": "_testC",
    },
  },
  "$vertexAliases": Map {
    "a" => 0,
    "b" => 1,
    "c" => 2,
  },
  "$vertexCount": 3,
  "$verticies": LazyCopyMap {
    "children": Array [],
    "data": Map {
      0 => Object {
        "data": "_testA",
        "matcher": [Function],
        "orData": false,
        "pointer": false,
        "transitionable": false,
      },
      1 => Object {
        "data": "_testB",
        "matcher": [Function],
        "orData": false,
        "pointer": false,
        "transitionable": false,
      },
      2 => Object {
        "data": "_testC",
        "matcher": [Function],
        "orData": false,
        "pointer": false,
        "transitionable": false,
      },
    },
    "parent": undefined,
  },
  "concrete": true,
}
`;

exports[`subgraphUtils destroy few 2`] = `
Subgraph {
  "$data": LazyCopyMap {
    "children": Array [],
    "data": Map {
      1 => undefined,
      0 => undefined,
    },
    "parent": undefined,
  },
  "$edgeAliases": Map {},
  "$edgeCount": 0,
  "$edges": LazyCopyMap {
    "children": Array [],
    "data": Map {},
    "parent": undefined,
  },
  "$idea": Map {
    2 => ProxyIdea {
      "id": "_testC",
    },
  },
  "$vertexAliases": Map {
    "a" => 0,
    "b" => 1,
    "c" => 2,
  },
  "$vertexCount": 3,
  "$verticies": LazyCopyMap {
    "children": Array [],
    "data": Map {
      0 => Object {
        "data": "_testA",
        "matcher": [Function],
        "orData": false,
        "pointer": false,
        "transitionable": false,
      },
      1 => Object {
        "data": "_testB",
        "matcher": [Function],
        "orData": false,
        "pointer": false,
        "transitionable": false,
      },
      2 => Object {
        "data": "_testC",
        "matcher": [Function],
        "orData": false,
        "pointer": false,
        "transitionable": false,
      },
    },
    "parent": undefined,
  },
  "concrete": false,
}
`;

exports[`subgraphUtils destroy only one 1`] = `
Subgraph {
  "$data": LazyCopyMap {
    "children": Array [],
    "data": Map {
      0 => Object {
        "value": "a",
      },
    },
    "parent": undefined,
  },
  "$edgeAliases": Map {},
  "$edgeCount": 0,
  "$edges": LazyCopyMap {
    "children": Array [],
    "data": Map {},
    "parent": undefined,
  },
  "$idea": Map {
    0 => ProxyIdea {
      "id": "_testA",
    },
  },
  "$vertexAliases": Map {
    "a" => 0,
  },
  "$vertexCount": 1,
  "$verticies": LazyCopyMap {
    "children": Array [],
    "data": Map {
      0 => Object {
        "data": "_testA",
        "matcher": [Function],
        "orData": false,
        "pointer": false,
        "transitionable": false,
      },
    },
    "parent": undefined,
  },
  "concrete": true,
}
`;

exports[`subgraphUtils destroy only one 2`] = `
Subgraph {
  "$data": LazyCopyMap {
    "children": Array [],
    "data": Map {
      0 => undefined,
    },
    "parent": undefined,
  },
  "$edgeAliases": Map {},
  "$edgeCount": 0,
  "$edges": LazyCopyMap {
    "children": Array [],
    "data": Map {},
    "parent": undefined,
  },
  "$idea": Map {},
  "$vertexAliases": Map {
    "a" => 0,
  },
  "$vertexCount": 1,
  "$verticies": LazyCopyMap {
    "children": Array [],
    "data": Map {
      0 => Object {
        "data": "_testA",
        "matcher": [Function],
        "orData": false,
        "pointer": false,
        "transitionable": false,
      },
    },
    "parent": undefined,
  },
  "concrete": false,
}
`;
