// Jest Snapshot v1, https://goo.gl/fbAQLP

exports[`Subgraph #data getData idea has data 1`] = `
LazyCopyMap {
  "children": Array [],
  "data": Map {},
  "parent": undefined,
}
`;

exports[`Subgraph #data getData idea has data 2`] = `
LazyCopyMap {
  "children": Array [],
  "data": Map {
    0 => Object {
      "value": "one",
    },
  },
  "parent": undefined,
}
`;

exports[`Subgraph #data getData idea has data 3`] = `
LazyCopyMap {
  "children": Array [],
  "data": Map {
    0 => Object {
      "value": "one",
    },
  },
  "parent": undefined,
}
`;

exports[`Subgraph #data getData idea without data 1`] = `
LazyCopyMap {
  "children": Array [],
  "data": Map {},
  "parent": undefined,
}
`;

exports[`Subgraph #data getData idea without data 2`] = `
LazyCopyMap {
  "children": Array [],
  "data": Map {
    0 => null,
  },
  "parent": undefined,
}
`;

exports[`Subgraph #data getData idea without data 3`] = `
LazyCopyMap {
  "children": Array [],
  "data": Map {
    0 => null,
  },
  "parent": undefined,
}
`;

exports[`Subgraph #setup addEdge correct 1`] = `
Subgraph {
  "$data": LazyCopyMap {
    "children": Array [],
    "data": Map {},
    "parent": undefined,
  },
  "$edgeAliases": Map {
    "a thing" => 1,
  },
  "$edgeCount": 4,
  "$edges": LazyCopyMap {
    "children": Array [],
    "data": Map {
      0 => Object {
        "dst": 1,
        "edgeId": 0,
        "link": Object {
          "name": "property",
          "opposite": Object {
            "name": "property-opp",
            "opposite": [Circular],
            "transitive": false,
          },
          "transitive": false,
        },
        "pref": 0,
        "src": 0,
        "transitionable": false,
      },
      1 => Object {
        "dst": 1,
        "edgeId": 1,
        "link": Object {
          "name": "property",
          "opposite": Object {
            "name": "property-opp",
            "opposite": [Circular],
            "transitive": false,
          },
          "transitive": false,
        },
        "pref": 1,
        "src": 0,
        "transitionable": false,
      },
      2 => Object {
        "dst": 1,
        "edgeId": 2,
        "link": Object {
          "name": "property",
          "opposite": Object {
            "name": "property-opp",
            "opposite": [Circular],
            "transitive": false,
          },
          "transitive": false,
        },
        "pref": 0,
        "src": 0,
        "transitionable": false,
      },
      3 => Object {
        "dst": 1,
        "edgeId": 3,
        "link": Object {
          "name": "sameAs",
          "opposite": [Circular],
          "transitive": true,
        },
        "pref": 0,
        "src": 0,
        "transitionable": false,
      },
    },
    "parent": undefined,
  },
  "$idea": Map {},
  "$vertexAliases": Map {},
  "$vertexCount": 2,
  "$verticies": LazyCopyMap {
    "children": Array [],
    "data": Map {
      0 => Object {
        "data": undefined,
        "matcher": [Function],
        "orData": false,
        "pointer": false,
        "transitionable": false,
      },
      1 => Object {
        "data": undefined,
        "matcher": [Function],
        "orData": false,
        "pointer": false,
        "transitionable": false,
      },
    },
    "parent": undefined,
  },
  "concrete": false,
}
`;

exports[`Subgraph #setup addVertex correct matcher.id / options.orData 1`] = `
Subgraph {
  "$data": LazyCopyMap {
    "children": Array [],
    "data": Map {},
    "parent": undefined,
  },
  "$edgeAliases": Map {},
  "$edgeCount": 0,
  "$edges": LazyCopyMap {
    "children": Array [],
    "data": Map {},
    "parent": undefined,
  },
  "$idea": Map {},
  "$vertexAliases": Map {},
  "$vertexCount": 1,
  "$verticies": LazyCopyMap {
    "children": Array [],
    "data": Map {
      0 => Object {
        "data": Array [
          "_test",
          "_test2",
        ],
        "matcher": [Function],
        "orData": true,
        "pointer": false,
        "transitionable": false,
      },
    },
    "parent": undefined,
  },
  "concrete": false,
}
`;

exports[`Subgraph #setup addVertex correct options.orData 1`] = `
Subgraph {
  "$data": LazyCopyMap {
    "children": Array [],
    "data": Map {},
    "parent": undefined,
  },
  "$edgeAliases": Map {},
  "$edgeCount": 0,
  "$edges": LazyCopyMap {
    "children": Array [],
    "data": Map {},
    "parent": undefined,
  },
  "$idea": Map {},
  "$vertexAliases": Map {},
  "$vertexCount": 1,
  "$verticies": LazyCopyMap {
    "children": Array [],
    "data": Map {
      0 => Object {
        "data": Array [
          Object {
            "value": "one",
          },
          Object {
            "value": "two",
          },
        ],
        "matcher": [Function],
        "orData": true,
        "pointer": false,
        "transitionable": false,
      },
    },
    "parent": undefined,
  },
  "concrete": false,
}
`;

exports[`Subgraph constructor copy 1`] = `
Subgraph {
  "$data": LazyCopyMap {
    "children": Array [],
    "data": Map {},
    "parent": undefined,
  },
  "$edgeAliases": Map {},
  "$edgeCount": 1,
  "$edges": LazyCopyMap {
    "children": Array [],
    "data": Map {},
    "parent": LazyCopyMap {
      "children": Array [
        [Circular],
      ],
      "data": Map {
        0 => Object {
          "dst": 1,
          "edgeId": 0,
          "link": Object {
            "name": "property",
            "opposite": Object {
              "name": "property-opp",
              "opposite": [Circular],
              "transitive": false,
            },
            "transitive": false,
          },
          "pref": 0,
          "src": 0,
          "transitionable": false,
        },
      },
      "parent": undefined,
    },
  },
  "$idea": Map {
    0 => ProxyIdea {
      "id": "_test",
    },
  },
  "$vertexAliases": Map {},
  "$vertexCount": 2,
  "$verticies": LazyCopyMap {
    "children": Array [],
    "data": Map {},
    "parent": LazyCopyMap {
      "children": Array [
        [Circular],
      ],
      "data": Map {
        0 => Object {
          "data": undefined,
          "matcher": [Function],
          "orData": false,
          "pointer": false,
          "transitionable": false,
        },
        1 => Object {
          "data": undefined,
          "matcher": [Function],
          "orData": false,
          "pointer": false,
          "transitionable": false,
        },
      },
      "parent": undefined,
    },
  },
  "concrete": false,
}
`;

exports[`Subgraph constructor empty 1`] = `
Subgraph {
  "$data": LazyCopyMap {
    "children": Array [],
    "data": Map {},
    "parent": undefined,
  },
  "$edgeAliases": Map {},
  "$edgeCount": 0,
  "$edges": LazyCopyMap {
    "children": Array [],
    "data": Map {},
    "parent": undefined,
  },
  "$idea": Map {},
  "$vertexAliases": Map {},
  "$vertexCount": 0,
  "$verticies": LazyCopyMap {
    "children": Array [],
    "data": Map {},
    "parent": undefined,
  },
  "concrete": true,
}
`;

exports[`Subgraph stringifySubgraph / parse 1`] = `
Subgraph {
  "$data": LazyCopyMap {
    "children": Array [],
    "data": Map {
      0 => Object {
        "value": "a",
      },
    },
    "parent": undefined,
  },
  "$edgeAliases": Map {},
  "$edgeCount": 1,
  "$edges": LazyCopyMap {
    "children": Array [],
    "data": Map {
      0 => Object {
        "dst": 1,
        "edgeId": 0,
        "link": Object {
          "name": "property",
          "opposite": Object {
            "name": "property-opp",
            "opposite": [Circular],
            "transitive": false,
          },
          "transitive": false,
        },
        "pref": 0,
        "src": 0,
        "transitionable": false,
      },
    },
    "parent": undefined,
  },
  "$idea": Map {
    1 => ProxyIdea {
      "id": "_test",
    },
    0 => ProxyIdea {
      "id": "_test",
    },
  },
  "$vertexAliases": Map {
    "unknown" => 0,
    "anchor" => 1,
  },
  "$vertexCount": 2,
  "$verticies": LazyCopyMap {
    "children": Array [],
    "data": Map {
      0 => Object {
        "data": undefined,
        "matcher": [Function],
        "orData": false,
        "pointer": false,
        "transitionable": false,
      },
      1 => Object {
        "data": "_test",
        "matcher": [Function],
        "orData": false,
        "pointer": false,
        "transitionable": false,
      },
    },
    "parent": undefined,
  },
  "concrete": false,
}
`;

exports[`Subgraph stringifySubgraph / parse 2`] = `
"{
  "v": [
    {
      "i": 0,
      "m": "filler",
      "t": false,
      "p": false,
      "od": false
    },
    {
      "i": 1,
      "m": "id",
      "d": "_test",
      "t": false,
      "p": false,
      "od": false
    }
  ],
  "i": [
    [
      1,
      "_test"
    ],
    [
      0,
      "_test"
    ]
  ],
  "d": [
    [
      0,
      {
        "value": "a"
      }
    ]
  ],
  "e": [
    {
      "e": 0,
      "s": 0,
      "l": "property",
      "d": 1,
      "p": 0,
      "t": false
    }
  ],
  "va": {
    "unknown": 0,
    "anchor": 1
  },
  "ea": {},
  "c": false
}"
`;
