// Jest Snapshot v1, https://goo.gl/fbAQLP

exports[`actuator ActuatorAction $stringifyAction / actionParser 1`] = `
Object {
  "idea": undefined,
  "rawCallback": "mock callback",
  "rawCallbackArgs": Array [
    "a",
    "b",
  ],
  "requirements": "{"v":[],"i":[],"d":[],"e":[],"va":{},"ea":{},"c":true}",
  "transitions": Array [],
}
`;

exports[`actuator ActuatorAction calcGlue multiple glues 1`] = `
Array [
  Object {
    "innerToOuterEdgeMap": Map {
      0 => 0,
    },
    "innerToOuterVertexMap": Map {
      0 => 0,
      1 => 1,
    },
  },
  Object {
    "innerToOuterEdgeMap": Map {
      0 => 1,
    },
    "innerToOuterVertexMap": Map {
      0 => 0,
      1 => 2,
    },
  },
]
`;

exports[`actuator ActuatorAction calcGlue multiple glues: original action is unchanged 1`] = `
ActuatorAction {
  "$glue": undefined,
  "$gluedState": undefined,
  "idea": undefined,
  "rawCallback": "mock callback",
  "rawCallbackArgs": Array [
    "a",
    "b",
  ],
  "requirements": Subgraph {
    "$data": LazyCopyMap {
      "children": Array [],
      "data": Map {},
      "parent": undefined,
    },
    "$edgeAliases": Map {},
    "$edgeCount": 1,
    "$edges": LazyCopyMap {
      "children": Array [],
      "data": Map {
        0 => Object {
          "dst": 1,
          "edgeId": 0,
          "link": Object {
            "name": "has",
            "opposite": Object {
              "name": "has-opp",
              "opposite": [Circular],
              "transitive": true,
            },
            "transitive": true,
          },
          "pref": 0,
          "src": 0,
          "transitionable": false,
        },
      },
      "parent": undefined,
    },
    "$idea": Map {
      0 => ProxyIdea {
        "id": "_test",
      },
    },
    "$vertexAliases": Map {},
    "$vertexCount": 2,
    "$verticies": LazyCopyMap {
      "children": Array [],
      "data": Map {
        0 => Object {
          "data": "_test",
          "matcher": [Function],
          "orData": false,
          "pointer": false,
          "transitionable": false,
        },
        1 => Object {
          "data": undefined,
          "matcher": [Function],
          "orData": false,
          "pointer": false,
          "transitionable": false,
        },
      },
      "parent": undefined,
    },
    "concrete": false,
  },
  "transitions": Array [],
}
`;

exports[`actuator ActuatorAction calcGlue single glue 1`] = `
Array [
  ActuatorAction {
    "$glue": Object {
      "innerToOuterEdgeMap": Map {
        0 => 0,
      },
      "innerToOuterVertexMap": Map {
        0 => 0,
        1 => 1,
      },
    },
    "$gluedState": BlueprintState {
      "$actions": null,
      "availableActions": Array [],
      "state": Subgraph {
        "$data": LazyCopyMap {
          "children": Array [],
          "data": Map {},
          "parent": undefined,
        },
        "$edgeAliases": Map {},
        "$edgeCount": 1,
        "$edges": LazyCopyMap {
          "children": Array [],
          "data": Map {
            0 => Object {
              "dst": 1,
              "edgeId": 0,
              "link": Object {
                "name": "has",
                "opposite": Object {
                  "name": "has-opp",
                  "opposite": [Circular],
                  "transitive": true,
                },
                "transitive": true,
              },
              "pref": 0,
              "src": 0,
              "transitionable": false,
            },
          },
          "parent": undefined,
        },
        "$idea": Map {
          0 => ProxyIdea {
            "id": "_test",
          },
          1 => ProxyIdea {
            "id": "_test2",
          },
        },
        "$vertexAliases": Map {},
        "$vertexCount": 2,
        "$verticies": LazyCopyMap {
          "children": Array [],
          "data": Map {
            0 => Object {
              "data": "_test",
              "matcher": [Function],
              "orData": false,
              "pointer": false,
              "transitionable": false,
            },
            1 => Object {
              "data": "_test2",
              "matcher": [Function],
              "orData": false,
              "pointer": false,
              "transitionable": false,
            },
          },
          "parent": undefined,
        },
        "concrete": true,
      },
    },
    "idea": undefined,
    "rawCallback": "mock callback",
    "rawCallbackArgs": Array [
      "a",
      "b",
    ],
    "requirements": Subgraph {
      "$data": LazyCopyMap {
        "children": Array [],
        "data": Map {},
        "parent": undefined,
      },
      "$edgeAliases": Map {},
      "$edgeCount": 1,
      "$edges": LazyCopyMap {
        "children": Array [],
        "data": Map {
          0 => Object {
            "dst": 1,
            "edgeId": 0,
            "link": Object {
              "name": "has",
              "opposite": Object {
                "name": "has-opp",
                "opposite": [Circular],
                "transitive": true,
              },
              "transitive": true,
            },
            "pref": 0,
            "src": 0,
            "transitionable": false,
          },
        },
        "parent": undefined,
      },
      "$idea": Map {
        0 => ProxyIdea {
          "id": "_test",
        },
      },
      "$vertexAliases": Map {},
      "$vertexCount": 2,
      "$verticies": LazyCopyMap {
        "children": Array [],
        "data": Map {
          0 => Object {
            "data": "_test",
            "matcher": [Function],
            "orData": false,
            "pointer": false,
            "transitionable": false,
          },
          1 => Object {
            "data": undefined,
            "matcher": [Function],
            "orData": false,
            "pointer": false,
            "transitionable": false,
          },
        },
        "parent": undefined,
      },
      "concrete": false,
    },
    "transitions": Array [],
  },
]
`;

exports[`actuator ActuatorAction calcGlue single glue: original action is unchanged 1`] = `
ActuatorAction {
  "$glue": undefined,
  "$gluedState": undefined,
  "idea": undefined,
  "rawCallback": "mock callback",
  "rawCallbackArgs": Array [
    "a",
    "b",
  ],
  "requirements": Subgraph {
    "$data": LazyCopyMap {
      "children": Array [],
      "data": Map {},
      "parent": undefined,
    },
    "$edgeAliases": Map {},
    "$edgeCount": 1,
    "$edges": LazyCopyMap {
      "children": Array [],
      "data": Map {
        0 => Object {
          "dst": 1,
          "edgeId": 0,
          "link": Object {
            "name": "has",
            "opposite": Object {
              "name": "has-opp",
              "opposite": [Circular],
              "transitive": true,
            },
            "transitive": true,
          },
          "pref": 0,
          "src": 0,
          "transitionable": false,
        },
      },
      "parent": undefined,
    },
    "$idea": Map {
      0 => ProxyIdea {
        "id": "_test",
      },
    },
    "$vertexAliases": Map {},
    "$vertexCount": 2,
    "$verticies": LazyCopyMap {
      "children": Array [],
      "data": Map {
        0 => Object {
          "data": "_test",
          "matcher": [Function],
          "orData": false,
          "pointer": false,
          "transitionable": false,
        },
        1 => Object {
          "data": undefined,
          "matcher": [Function],
          "orData": false,
          "pointer": false,
          "transitionable": false,
        },
      },
      "parent": undefined,
    },
    "concrete": false,
  },
  "transitions": Array [],
}
`;
