// Jest Snapshot v1, https://goo.gl/fbAQLP

exports[`subgraphUtils destroy 1`] = `
Map {
  "101" => CoreIdea {
    "data": Object {
      "value": "fruit",
    },
    "id": "101",
    "links": Object {
      "typeOf-opp": Object {
        "102": Object {},
        "103": Object {},
      },
    },
  },
  "102" => CoreIdea {
    "data": Object {
      "value": "apple",
    },
    "id": "102",
    "links": Object {
      "property": Object {
        "104": Object {},
      },
      "typeOf": Object {
        "101": Object {},
      },
    },
  },
  "103" => CoreIdea {
    "data": Object {
      "value": "banana",
    },
    "id": "103",
    "links": Object {
      "property": Object {
        "105": Object {},
      },
      "typeOf": Object {
        "101": Object {},
      },
    },
  },
  "104" => CoreIdea {
    "data": Object {
      "value": "red",
    },
    "id": "104",
    "links": Object {
      "property-opp": Object {
        "102": Object {},
      },
    },
  },
  "105" => CoreIdea {
    "data": Object {
      "value": "yellow",
    },
    "id": "105",
    "links": Object {
      "property-opp": Object {
        "103": Object {},
      },
    },
  },
}
`;

exports[`subgraphUtils destroy 2`] = `
Object {
  "data": Object {
    "101": Object {
      "value": "fruit",
    },
    "102": Object {
      "value": "apple",
    },
    "103": Object {
      "value": "banana",
    },
    "104": Object {
      "value": "red",
    },
    "105": Object {
      "value": "yellow",
    },
  },
  "links": Object {
    "101": Object {
      "typeOf-opp": Object {
        "102": Object {},
        "103": Object {},
      },
    },
    "102": Object {
      "property": Object {
        "104": Object {},
      },
      "typeOf": Object {
        "101": Object {},
      },
    },
    "103": Object {
      "property": Object {
        "105": Object {},
      },
      "typeOf": Object {
        "101": Object {},
      },
    },
    "104": Object {
      "property-opp": Object {
        "102": Object {},
      },
    },
    "105": Object {
      "property-opp": Object {
        "103": Object {},
      },
    },
  },
}
`;

exports[`subgraphUtils destroy 3`] = `
Map {
  "101" => CoreIdea {
    "data": Object {
      "value": "fruit",
    },
    "id": "101",
    "links": Object {
      "typeOf-opp": Object {
        "103": Object {},
      },
    },
  },
  "103" => CoreIdea {
    "data": Object {
      "value": "banana",
    },
    "id": "103",
    "links": Object {
      "property": Object {
        "105": Object {},
      },
      "typeOf": Object {
        "101": Object {},
      },
    },
  },
  "105" => CoreIdea {
    "data": Object {
      "value": "yellow",
    },
    "id": "105",
    "links": Object {
      "property-opp": Object {
        "103": Object {},
      },
    },
  },
}
`;

exports[`subgraphUtils destroy 4`] = `
Object {
  "data": Object {
    "101": Object {
      "value": "fruit",
    },
    "103": Object {
      "value": "banana",
    },
    "105": Object {
      "value": "yellow",
    },
  },
  "links": Object {
    "101": Object {
      "typeOf-opp": Object {
        "103": Object {},
      },
    },
    "103": Object {
      "property": Object {
        "105": Object {},
      },
      "typeOf": Object {
        "101": Object {},
      },
    },
    "105": Object {
      "property-opp": Object {
        "103": Object {},
      },
    },
  },
}
`;
